{
  "users": [
    {
      "id": 1,
      "token": "c5454d5d-cd93-48b2-9e7e-bc6d79cf66d7",
      "email": "hasnatrichi23@gmail.com",
      "firstname": "TRICHI",
      "lastname": "Hasnaa",
      "tel": "0622972879",
      "role": "user",
      "password": "123456",
      "confirm": "123456",
      "entreprise": "non",
      "auth": true
    },
    {
      "id": 2,
      "token": "",
      "email": "entreprise@gmail.com",
      "firstname": "entreprise",
      "lastname": "informatique",
      "tel": "06259847",
      "role": "user",
      "password": "123456",
      "confirm": "123456",
      "entreprise": "oui",
      "auth": true
    },
    
    {
      "id": 2,
      "token": "ec0232a3-b980-48a4-8d08-5859b2cc3b25",
      "email": "admin@gmail.com",
      "firstname": "admin",
      "lastname": "cvtheque",
      "tel": "06259847",
      "role": "admin",
      "password": "123456",
      "confirm": "123456",
      "entreprise": "non",
      "auth": true
    }
  ]
}